Capítulo 8 Análise Textual (text mining) | Introdução à Análise Textual aplicada à Sociologia
…
Falas.SenHeinze <- NotasTaq %>% 
  # filtrando as linhas por nome
  filter(nome == "LUIS CARLOS HEINZE") %>%
  # separando somente as falas
  select(fala)
Falas.SenHeinze
## # A tibble: 49 × 1
##    fala                                                                         
##    <chr>                                                                        
##  1 "Mas logo agora, tchê? (Risos.) Logo agora, tchê? "                          
##  2 "Deixe os 20 minutos, não tem problema, está suspensa. (Intervenção fora do …
##  3 "Não, não, dá os 20 minutos, dá o recreio. Pode ser? (Suspensa às 13 horas e…
##  4 "Nós de Cacequi, Uruguaiana, não é, Omar Aziz? Sr. Presidente, Sr. Relator, …
##  5 "Está bom. Foi falado aqui que você é um representante comercial, mexe com v…
##  6 "Como é? "                                                                   
##  7 "Mas já fez negócio? "                                                       
##  8 "Já fez negócio com alguma prefeitura, com alguma farmácia, com algum Govern…
##  9 "Muitos negócios? "                                                          
## 10 "Qual documento lhe nomeou representante da Davati? "                        
## # … with 39 more rows
…
