14 Apêndice: Exemplo Análise - CPI da Pandemia | Introdução à Análise Textual aplicada à Sociologia
…
Como somente os senadores que participaram possuem campo com partido e bloco parlamentar preenchido, uma opção para filtrarmos apenas os senadores seria excluindo as linhas cuja célula da coluna “BlocoParl” esteja vazia. <<

O campo “funcao_blocoPar” possui, além da função e bloco parlamentar, possui também questões de ordem

O campo “part” melhora a situação, mas podendo haver parlamentar sem partido, não resolve nosso problema

o campo estado pode resolver nosso problema.

siglas <- c("AC", "AL", "AP", "AM", "BA", "CE", "DF", "ES", "GO", "MA", "MT", "MS", "MG", "PA", "PB", "PR", "PE", "PI", "RJ", "RN", "RS", "RO", "RR", "SC", "SP", "SE", "TO")
DFsenadores <- NotasTaq %>%
        #filter(siglas %in% estado)
        filter(estado %in% siglas)
DFsenadores
## # A tibble: 67,220 × 9
##    reuniao data       nome  funcao_blocoPar BlocoParl partido estado complemento
##      <dbl> <date>     <chr> <chr>           <chr>     <chr>   <chr>  <chr>      
##  1       1 2021-04-27 Otto… PRESIDENTE      (Otto Al… PSD     BA     "Fala da P…
##  2       1 2021-04-27 Ciro… (Bloco Parlame… Bloco Pa… PP      PI     "Para ques…
##  3       1 2021-04-27 Otto… PRESIDENTE      (Otto Al… PSD     BA     ""         
##  4       1 2021-04-27 Ciro… (Bloco Parlame… Bloco Pa… PP      PI     ""         
##  5       1 2021-04-27 Otto… PRESIDENTE      (Otto Al… PSD     BA     ""         
##  6       1 2021-04-27 Ciro… (Bloco Parlame… Bloco Pa… PP      PI     ""         
##  7       1 2021-04-27 Otto… PRESIDENTE      (Otto Al… PSD     BA     ""         
##  8       1 2021-04-27 Ciro… (Bloco Parlame… Bloco Pa… PP      PI     ""         
##  9       1 2021-04-27 Otto… PRESIDENTE      (Otto Al… PSD     BA     ""         
## 10       1 2021-04-27 Ciro… (Bloco Parlame… Bloco Pa… PP      PI     ""         
## # … with 67,210 more rows, and 1 more variable: fala <chr>
…
# criando um DF das falas de cada senador todas reunidas
senadores_falasJuntas <- NT_falasJuntasCount %>%
    filter(nome %in% senadoresNaCPI )
str(senadores_falasJuntas)
## tibble [43 × 3] (S3: tbl_df/tbl/data.frame)
##  $ nome      : chr [1:43] "Omar Aziz" "Renan Calheiros" "Randolfe Rodrigues" "Marcos Rogério" ...
##  $ N_palavras: int [1:43] 412873 354425 342297 196545 146236 139675 126370 124370 120364 114933 ...
##  $ falas     : chr [1:43] "Como é que é? Peço só um minutinho, só um minutinho!  senhor Presidente...  Eu acho que vossa_excelência.. Nós "| __truncated__ "Quer dizer que há outros impedimentos a serem...  Acredito não ser o caso de V.Exa., mas o Estado de Alagoas é "| __truncated__ "Presidente...  Presidente, qual a ordem?  Presidente, só para declinar a ordem, quem são?  Agora é a Eliziane? "| __truncated__ "senhor Presidente, senhors. e senhor. Senadores, faço a presente questão de ordem, senhor Presidente, desde log"| __truncated__ ...

E outro tibble apenas com quem não for senador

nao_senadores <- NotasTaq %>%
  filter(BlocoParl == "")
nao_senadores
## # A tibble: 24,296 × 9
##    reuniao data       nome  funcao_blocoPar BlocoParl partido estado complemento
##      <dbl> <date>     <chr> <chr>           <chr>     <chr>   <chr>  <chr>      
##  1      10 2021-05-20 Edua… ""              ""        ""      ""     ""         
##  2      10 2021-05-20 Edua… ""              ""        ""      ""     ""         
##  3      10 2021-05-20 Edua… ""              ""        ""      ""     ""         
##  4      10 2021-05-20 Edua… ""              ""        ""      ""     ""         
##  5      10 2021-05-20 Edua… ""              ""        ""      ""     ""         
##  6      10 2021-05-20 Edua… ""              ""        ""      ""     ""         
##  7      10 2021-05-20 Edua… ""              ""        ""      ""     ""         
##  8      10 2021-05-20 Edua… ""              ""        ""      ""     ""         
##  9      10 2021-05-20 Edua… ""              ""        ""      ""     ""         
## 10      10 2021-05-20 Edua… ""              ""        ""      ""     ""         
## # … with 24,286 more rows, and 1 more variable: fala <chr>
…
# contando todas as palavras
tudo.tokens %>%  dplyr::count()
## # A tibble: 1 × 1
##         n
##     <int>
## 1 3094644

# contando termos repetidos na coluna "word"
# Isto é, gerar a tabela de frequência de termos.
tudo.freq <- tudo.tokens %>%  dplyr::count(word, sort = TRUE)
# observando um pedaço
head(tudo.freq, 25)
## # A tibble: 25 × 2
##    word       n
##    <chr>  <int>
##  1 que   114479
##  2 o     104603
##  3 de    103579
##  4 a     102691
##  5 não    69265
##  6 e      64093
##  7 é      51666
##  8 eu     50458
##  9 da     43083
## 10 do     42760
## # … with 15 more rows
…
