16 wordcloud - Nuvem de palavras | Introdução à Análise Textual aplicada à Sociologia
…
# contando todas as palavras
tudo.tokens %>%  dplyr::count()
## # A tibble: 1 × 1
##         n
##     <int>
## 1 3094644

# contando termos repetidos na coluna "word"
# Isto é, gerar a tabela de frequência de termos.
tudo.freq <- tudo.tokens %>%  dplyr::count(word, sort = TRUE)
# observando um pedaço
head(tudo.freq, 25)
## # A tibble: 25 × 2
##    word       n
##    <chr>  <int>
##  1 que   114479
##  2 o     104603
##  3 de    103579
##  4 a     102691
##  5 não    69265
##  6 e      64093
##  7 é      51666
##  8 eu     50458
##  9 da     43083
## 10 do     42760
## # … with 15 more rows
…
